<?xml version="1.0" encoding="UTF-8" standalone="no"?>
<!DOCTYPE svg PUBLIC "-//W3C//DTD SVG 1.1//EN"
 "http://www.w3.org/Graphics/SVG/1.1/DTD/svg11.dtd">
<!-- Generated by graphviz version 2.38.0 (20140413.2041)
 -->
<!-- Title: G Pages: 1 -->
<svg width="842pt" height="2422pt"
 viewBox="0.00 0.00 841.76 2422.00" xmlns="http://www.w3.org/2000/svg" xmlns:xlink="http://www.w3.org/1999/xlink">
<g id="graph0" class="graph" transform="scale(1 1) rotate(0) translate(4 2418)">
<title>G</title>
<polygon fill="white" stroke="none" points="-4,4 -4,-2418 837.755,-2418 837.755,4 -4,4"/>
<g id="clust1" class="cluster"><title>cluster_Global</title>
<path fill="none" stroke="gray" d="M545.755,-8C545.755,-8 813.755,-8 813.755,-8 819.755,-8 825.755,-14 825.755,-20 825.755,-20 825.755,-2394 825.755,-2394 825.755,-2400 819.755,-2406 813.755,-2406 813.755,-2406 545.755,-2406 545.755,-2406 539.755,-2406 533.755,-2400 533.755,-2394 533.755,-2394 533.755,-20 533.755,-20 533.755,-14 539.755,-8 545.755,-8"/>
<text text-anchor="middle" x="679.755" y="-2393.2" font-family="Times New Roman,serif" font-size="11.00" fill="gray">Global</text>
</g>
<g id="clust2" class="cluster"><title>cluster_\mkotlarz</title>
<path fill="none" stroke="gray" d="M553.755,-16C553.755,-16 805.755,-16 805.755,-16 811.755,-16 817.755,-22 817.755,-28 817.755,-28 817.755,-2366 817.755,-2366 817.755,-2372 811.755,-2378 805.755,-2378 805.755,-2378 553.755,-2378 553.755,-2378 547.755,-2378 541.755,-2372 541.755,-2366 541.755,-2366 541.755,-28 541.755,-28 541.755,-22 547.755,-16 553.755,-16"/>
<text text-anchor="middle" x="679.755" y="-2365.2" font-family="Times New Roman,serif" font-size="11.00" fill="gray">mkotlarz</text>
</g>
<g id="clust3" class="cluster"><title>cluster_\mkotlarz\QRAppBundle</title>
<path fill="none" stroke="gray" d="M561.755,-24C561.755,-24 797.755,-24 797.755,-24 803.755,-24 809.755,-30 809.755,-36 809.755,-36 809.755,-2338 809.755,-2338 809.755,-2344 803.755,-2350 797.755,-2350 797.755,-2350 561.755,-2350 561.755,-2350 555.755,-2350 549.755,-2344 549.755,-2338 549.755,-2338 549.755,-36 549.755,-36 549.755,-30 555.755,-24 561.755,-24"/>
<text text-anchor="middle" x="679.755" y="-2337.2" font-family="Times New Roman,serif" font-size="11.00" fill="gray">QRAppBundle</text>
</g>
<g id="clust4" class="cluster"><title>cluster_\mkotlarz\QRAppBundle\Controller</title>
<path fill="none" stroke="gray" d="M591.255,-2034C591.255,-2034 768.255,-2034 768.255,-2034 774.255,-2034 780.255,-2040 780.255,-2046 780.255,-2046 780.255,-2310 780.255,-2310 780.255,-2316 774.255,-2322 768.255,-2322 768.255,-2322 591.255,-2322 591.255,-2322 585.255,-2322 579.255,-2316 579.255,-2310 579.255,-2310 579.255,-2046 579.255,-2046 579.255,-2040 585.255,-2034 591.255,-2034"/>
<text text-anchor="middle" x="679.755" y="-2309.2" font-family="Times New Roman,serif" font-size="11.00" fill="gray">Controller</text>
</g>
<g id="clust5" class="cluster"><title>cluster_\mkotlarz\QRAppBundle\DependencyInjection</title>
<path fill="none" stroke="gray" d="M601.255,-1900C601.255,-1900 758.255,-1900 758.255,-1900 764.255,-1900 770.255,-1906 770.255,-1912 770.255,-1912 770.255,-2014 770.255,-2014 770.255,-2020 764.255,-2026 758.255,-2026 758.255,-2026 601.255,-2026 601.255,-2026 595.255,-2026 589.255,-2020 589.255,-2014 589.255,-2014 589.255,-1912 589.255,-1912 589.255,-1906 595.255,-1900 601.255,-1900"/>
<text text-anchor="middle" x="679.755" y="-2013.2" font-family="Times New Roman,serif" font-size="11.00" fill="gray">DependencyInjection</text>
</g>
<g id="clust6" class="cluster"><title>cluster_\mkotlarz\QRAppBundle\Entity</title>
<path fill="none" stroke="gray" d="M604.755,-956C604.755,-956 754.755,-956 754.755,-956 760.755,-956 766.755,-962 766.755,-968 766.755,-968 766.755,-1880 766.755,-1880 766.755,-1886 760.755,-1892 754.755,-1892 754.755,-1892 604.755,-1892 604.755,-1892 598.755,-1892 592.755,-1886 592.755,-1880 592.755,-1880 592.755,-968 592.755,-968 592.755,-962 598.755,-956 604.755,-956"/>
<text text-anchor="middle" x="679.755" y="-1879.2" font-family="Times New Roman,serif" font-size="11.00" fill="gray">Entity</text>
</g>
<g id="clust9" class="cluster"><title>cluster_\mkotlarz\QRAppBundle\Tests</title>
<path fill="none" stroke="gray" d="M569.755,-76C569.755,-76 789.755,-76 789.755,-76 795.755,-76 801.755,-82 801.755,-88 801.755,-88 801.755,-388 801.755,-388 801.755,-394 795.755,-400 789.755,-400 789.755,-400 569.755,-400 569.755,-400 563.755,-400 557.755,-394 557.755,-388 557.755,-388 557.755,-88 557.755,-88 557.755,-82 563.755,-76 569.755,-76"/>
<text text-anchor="middle" x="679.755" y="-387.2" font-family="Times New Roman,serif" font-size="11.00" fill="gray">Tests</text>
</g>
<g id="clust10" class="cluster"><title>cluster_\mkotlarz\QRAppBundle\Tests\Controller</title>
<path fill="none" stroke="gray" d="M577.755,-84C577.755,-84 781.755,-84 781.755,-84 787.755,-84 793.755,-90 793.755,-96 793.755,-96 793.755,-360 793.755,-360 793.755,-366 787.755,-372 781.755,-372 781.755,-372 577.755,-372 577.755,-372 571.755,-372 565.755,-366 565.755,-360 565.755,-360 565.755,-96 565.755,-96 565.755,-90 571.755,-84 577.755,-84"/>
<text text-anchor="middle" x="679.755" y="-359.2" font-family="Times New Roman,serif" font-size="11.00" fill="gray">Controller</text>
</g>
<g id="clust7" class="cluster"><title>cluster_\mkotlarz\QRAppBundle\Form</title>
<path fill="none" stroke="gray" d="M599.755,-408C599.755,-408 759.755,-408 759.755,-408 765.755,-408 771.755,-414 771.755,-420 771.755,-420 771.755,-936 771.755,-936 771.755,-942 765.755,-948 759.755,-948 759.755,-948 599.755,-948 599.755,-948 593.755,-948 587.755,-942 587.755,-936 587.755,-936 587.755,-420 587.755,-420 587.755,-414 593.755,-408 599.755,-408"/>
<text text-anchor="middle" x="679.755" y="-935.2" font-family="Times New Roman,serif" font-size="11.00" fill="gray">Form</text>
</g>
<g id="clust8" class="cluster"><title>cluster_\mkotlarz\QRAppBundle\Form\Type</title>
<path fill="none" stroke="gray" d="M607.755,-416C607.755,-416 751.755,-416 751.755,-416 757.755,-416 763.755,-422 763.755,-428 763.755,-428 763.755,-908 763.755,-908 763.755,-914 757.755,-920 751.755,-920 751.755,-920 607.755,-920 607.755,-920 601.755,-920 595.755,-914 595.755,-908 595.755,-908 595.755,-428 595.755,-428 595.755,-422 601.755,-416 607.755,-416"/>
<text text-anchor="middle" x="679.755" y="-907.2" font-family="Times New Roman,serif" font-size="11.00" fill="gray">Type</text>
</g>
<!-- \\mkotlarz\\QRAppBundle\\Controller\\DashboardController -->
<g id="node1" class="node"><title>\\mkotlarz\\QRAppBundle\\Controller\\DashboardController</title>
<polygon fill="none" stroke="black" points="752.255,-2294 607.255,-2294 607.255,-2258 752.255,-2258 752.255,-2294"/>
<text text-anchor="middle" x="679.755" y="-2273.2" font-family="Courier,monospace" font-size="11.00">DashboardController</text>
</g>
<!-- \\Symfony\\Bundle\\FrameworkBundle\\Controller\\Controller -->
<g id="node40" class="node"><title>\\Symfony\\Bundle\\FrameworkBundle\\Controller\\Controller</title>
<ellipse fill="none" stroke="black" cx="250.878" cy="-2168" rx="221.761" ry="18"/>
<text text-anchor="middle" x="250.878" y="-2164.3" font-family="Times New Roman,serif" font-size="14.00" fill="gray">\Symfony\Bundle\FrameworkBundle\Controller\Controller</text>
</g>
<!-- \\mkotlarz\\QRAppBundle\\Controller\\DashboardController&#45;&gt;\\Symfony\\Bundle\\FrameworkBundle\\Controller\\Controller -->
<g id="edge1" class="edge"><title>\\mkotlarz\\QRAppBundle\\Controller\\DashboardController&#45;&gt;\\Symfony\\Bundle\\FrameworkBundle\\Controller\\Controller</title>
<path fill="none" stroke="black" d="M606.931,-2264.03C583.502,-2259.75 557.43,-2254.59 533.755,-2249 458.454,-2231.21 373.23,-2206 316.395,-2188.45"/>
<polygon fill="none" stroke="black" points="317.411,-2185.1 306.824,-2185.48 315.339,-2191.79 317.411,-2185.1"/>
</g>
<!-- \\mkotlarz\\QRAppBundle\\Controller\\DefaultController -->
<g id="node2" class="node"><title>\\mkotlarz\\QRAppBundle\\Controller\\DefaultController</title>
<polygon fill="none" stroke="black" points="745.255,-2240 614.255,-2240 614.255,-2204 745.255,-2204 745.255,-2240"/>
<text text-anchor="middle" x="679.755" y="-2219.2" font-family="Courier,monospace" font-size="11.00">DefaultController</text>
</g>
<!-- \\mkotlarz\\QRAppBundle\\Controller\\DefaultController&#45;&gt;\\Symfony\\Bundle\\FrameworkBundle\\Controller\\Controller -->
<g id="edge2" class="edge"><title>\\mkotlarz\\QRAppBundle\\Controller\\DefaultController&#45;&gt;\\Symfony\\Bundle\\FrameworkBundle\\Controller\\Controller</title>
<path fill="none" stroke="black" d="M613.922,-2213.8C552.538,-2206.03 458.598,-2194.15 381.792,-2184.43"/>
<polygon fill="none" stroke="black" points="381.915,-2180.92 371.554,-2183.14 381.036,-2187.87 381.915,-2180.92"/>
</g>
<!-- \\mkotlarz\\QRAppBundle\\Controller\\HomeController -->
<g id="node3" class="node"><title>\\mkotlarz\\QRAppBundle\\Controller\\HomeController</title>
<polygon fill="none" stroke="black" points="735.255,-2186 624.255,-2186 624.255,-2150 735.255,-2150 735.255,-2186"/>
<text text-anchor="middle" x="679.755" y="-2165.2" font-family="Courier,monospace" font-size="11.00">HomeController</text>
</g>
<!-- \\mkotlarz\\QRAppBundle\\Controller\\HomeController&#45;&gt;\\Symfony\\Bundle\\FrameworkBundle\\Controller\\Controller -->
<g id="edge3" class="edge"><title>\\mkotlarz\\QRAppBundle\\Controller\\HomeController&#45;&gt;\\Symfony\\Bundle\\FrameworkBundle\\Controller\\Controller</title>
<path fill="none" stroke="black" d="M623.823,-2168C587.013,-2168 535.795,-2168 483.121,-2168"/>
<polygon fill="none" stroke="black" points="482.922,-2164.5 472.921,-2168 482.921,-2171.5 482.922,-2164.5"/>
</g>
<!-- \\mkotlarz\\QRAppBundle\\Controller\\JSONGeneratorController -->
<g id="node4" class="node"><title>\\mkotlarz\\QRAppBundle\\Controller\\JSONGeneratorController</title>
<polygon fill="none" stroke="black" points="765.755,-2132 593.755,-2132 593.755,-2096 765.755,-2096 765.755,-2132"/>
<text text-anchor="middle" x="679.755" y="-2111.2" font-family="Courier,monospace" font-size="11.00">JSONGeneratorController</text>
</g>
<!-- \\mkotlarz\\QRAppBundle\\Controller\\JSONGeneratorController&#45;&gt;\\Symfony\\Bundle\\FrameworkBundle\\Controller\\Controller -->
<g id="edge4" class="edge"><title>\\mkotlarz\\QRAppBundle\\Controller\\JSONGeneratorController&#45;&gt;\\Symfony\\Bundle\\FrameworkBundle\\Controller\\Controller</title>
<path fill="none" stroke="black" d="M593.652,-2124.77C533.03,-2132.43 450.437,-2142.88 381.631,-2151.59"/>
<polygon fill="none" stroke="black" points="381.065,-2148.13 371.583,-2152.86 381.944,-2155.07 381.065,-2148.13"/>
</g>
<!-- \\mkotlarz\\QRAppBundle\\Controller\\QRCodeGeneratorController -->
<g id="node5" class="node"><title>\\mkotlarz\\QRAppBundle\\Controller\\QRCodeGeneratorController</title>
<polygon fill="none" stroke="black" points="772.255,-2078 587.255,-2078 587.255,-2042 772.255,-2042 772.255,-2078"/>
<text text-anchor="middle" x="679.755" y="-2057.2" font-family="Courier,monospace" font-size="11.00">QRCodeGeneratorController</text>
</g>
<!-- \\mkotlarz\\QRAppBundle\\Controller\\QRCodeGeneratorController&#45;&gt;\\Symfony\\Bundle\\FrameworkBundle\\Controller\\Controller -->
<g id="edge5" class="edge"><title>\\mkotlarz\\QRAppBundle\\Controller\\QRCodeGeneratorController&#45;&gt;\\Symfony\\Bundle\\FrameworkBundle\\Controller\\Controller</title>
<path fill="none" stroke="black" d="M587.204,-2075.67C569.41,-2079.1 550.951,-2082.94 533.755,-2087 458.454,-2104.79 373.23,-2130 316.395,-2147.55"/>
<polygon fill="none" stroke="black" points="315.339,-2144.21 306.824,-2150.52 317.411,-2150.9 315.339,-2144.21"/>
</g>
<!-- \\mkotlarz\\QRAppBundle\\DependencyInjection\\Configuration -->
<g id="node6" class="node"><title>\\mkotlarz\\QRAppBundle\\DependencyInjection\\Configuration</title>
<polygon fill="none" stroke="black" points="731.755,-1998 627.755,-1998 627.755,-1962 731.755,-1962 731.755,-1998"/>
<text text-anchor="middle" x="679.755" y="-1977.2" font-family="Courier,monospace" font-size="11.00">Configuration</text>
</g>
<!-- \\Symfony\\Component\\Config\\Definition\\ConfigurationInterface -->
<g id="node41" class="node"><title>\\Symfony\\Component\\Config\\Definition\\ConfigurationInterface</title>
<ellipse fill="none" stroke="black" cx="250.878" cy="-1980" rx="240.457" ry="18"/>
<text text-anchor="middle" x="250.878" y="-1976.3" font-family="Times New Roman,serif" font-size="14.00" fill="gray">\Symfony\Component\Config\Definition\ConfigurationInterface</text>
</g>
<!-- \\mkotlarz\\QRAppBundle\\DependencyInjection\\Configuration&#45;&gt;\\Symfony\\Component\\Config\\Definition\\ConfigurationInterface -->
<g id="edge6" class="edge"><title>\\mkotlarz\\QRAppBundle\\DependencyInjection\\Configuration&#45;&gt;\\Symfony\\Component\\Config\\Definition\\ConfigurationInterface</title>
<path fill="none" stroke="black" stroke-dasharray="1,5" d="M627.688,-1980C594.941,-1980 549.732,-1980 501.999,-1980"/>
<polygon fill="none" stroke="black" points="501.778,-1976.5 491.778,-1980 501.778,-1983.5 501.778,-1976.5"/>
</g>
<!-- \\mkotlarz\\QRAppBundle\\DependencyInjection\\mkotlarzQRAppExtension -->
<g id="node7" class="node"><title>\\mkotlarz\\QRAppBundle\\DependencyInjection\\mkotlarzQRAppExtension</title>
<polygon fill="none" stroke="black" points="762.255,-1944 597.255,-1944 597.255,-1908 762.255,-1908 762.255,-1944"/>
<text text-anchor="middle" x="679.755" y="-1923.2" font-family="Courier,monospace" font-size="11.00">mkotlarzQRAppExtension</text>
</g>
<!-- \\Symfony\\Component\\HttpKernel\\DependencyInjection\\Extension -->
<g id="node42" class="node"><title>\\Symfony\\Component\\HttpKernel\\DependencyInjection\\Extension</title>
<ellipse fill="none" stroke="black" cx="250.878" cy="-1926" rx="250.756" ry="18"/>
<text text-anchor="middle" x="250.878" y="-1922.3" font-family="Times New Roman,serif" font-size="14.00" fill="gray">\Symfony\Component\HttpKernel\DependencyInjection\Extension</text>
</g>
<!-- \\mkotlarz\\QRAppBundle\\DependencyInjection\\mkotlarzQRAppExtension&#45;&gt;\\Symfony\\Component\\HttpKernel\\DependencyInjection\\Extension -->
<g id="edge7" class="edge"><title>\\mkotlarz\\QRAppBundle\\DependencyInjection\\mkotlarzQRAppExtension&#45;&gt;\\Symfony\\Component\\HttpKernel\\DependencyInjection\\Extension</title>
<path fill="none" stroke="black" d="M597.206,-1926C572.094,-1926 542.976,-1926 512.508,-1926"/>
<polygon fill="none" stroke="black" points="512.127,-1922.5 502.127,-1926 512.127,-1929.5 512.127,-1922.5"/>
</g>
<!-- \\mkotlarz\\QRAppBundle\\Entity\\Hour -->
<g id="node8" class="node"><title>\\mkotlarz\\QRAppBundle\\Entity\\Hour</title>
<polygon fill="none" stroke="black" points="706.755,-1864 652.755,-1864 652.755,-1828 706.755,-1828 706.755,-1864"/>
<text text-anchor="middle" x="679.755" y="-1843.2" font-family="Courier,monospace" font-size="11.00">Hour</text>
</g>
<!-- \\mkotlarz\\QRAppBundle\\Entity\\HourRepository -->
<g id="node9" class="node"><title>\\mkotlarz\\QRAppBundle\\Entity\\HourRepository</title>
<polygon fill="none" stroke="black" points="735.255,-1810 624.255,-1810 624.255,-1774 735.255,-1774 735.255,-1810"/>
<text text-anchor="middle" x="679.755" y="-1789.2" font-family="Courier,monospace" font-size="11.00">HourRepository</text>
</g>
<!-- \\Doctrine\\ORM\\EntityRepository -->
<g id="node43" class="node"><title>\\Doctrine\\ORM\\EntityRepository</title>
<ellipse fill="none" stroke="black" cx="250.878" cy="-1414" rx="131.877" ry="18"/>
<text text-anchor="middle" x="250.878" y="-1410.3" font-family="Times New Roman,serif" font-size="14.00" fill="gray">\Doctrine\ORM\EntityRepository</text>
</g>
<!-- \\mkotlarz\\QRAppBundle\\Entity\\HourRepository&#45;&gt;\\Doctrine\\ORM\\EntityRepository -->
<g id="edge8" class="edge"><title>\\mkotlarz\\QRAppBundle\\Entity\\HourRepository&#45;&gt;\\Doctrine\\ORM\\EntityRepository</title>
<path fill="none" stroke="black" d="M624.244,-1790.84C595.593,-1788.09 560.893,-1781.24 533.755,-1765 396.956,-1683.16 299.207,-1508.91 265.124,-1441.46"/>
<polygon fill="none" stroke="black" points="268.154,-1439.7 260.56,-1432.31 261.89,-1442.82 268.154,-1439.7"/>
</g>
<!-- \\mkotlarz\\QRAppBundle\\Entity\\Lesson -->
<g id="node10" class="node"><title>\\mkotlarz\\QRAppBundle\\Entity\\Lesson</title>
<polygon fill="none" stroke="black" points="708.255,-1756 651.255,-1756 651.255,-1720 708.255,-1720 708.255,-1756"/>
<text text-anchor="middle" x="679.755" y="-1735.2" font-family="Courier,monospace" font-size="11.00">Lesson</text>
</g>
<!-- \\mkotlarz\\QRAppBundle\\Entity\\LessonRepository -->
<g id="node11" class="node"><title>\\mkotlarz\\QRAppBundle\\Entity\\LessonRepository</title>
<polygon fill="none" stroke="black" points="742.255,-1702 617.255,-1702 617.255,-1666 742.255,-1666 742.255,-1702"/>
<text text-anchor="middle" x="679.755" y="-1681.2" font-family="Courier,monospace" font-size="11.00">LessonRepository</text>
</g>
<!-- \\mkotlarz\\QRAppBundle\\Entity\\LessonRepository&#45;&gt;\\Doctrine\\ORM\\EntityRepository -->
<g id="edge9" class="edge"><title>\\mkotlarz\\QRAppBundle\\Entity\\LessonRepository&#45;&gt;\\Doctrine\\ORM\\EntityRepository</title>
<path fill="none" stroke="black" d="M616.914,-1679.72C590.316,-1676.08 559.492,-1669.36 533.755,-1657 420.381,-1602.54 316.442,-1490.4 273.143,-1439.79"/>
<polygon fill="none" stroke="black" points="275.619,-1437.29 266.485,-1431.93 270.278,-1441.82 275.619,-1437.29"/>
</g>
<!-- \\mkotlarz\\QRAppBundle\\Entity\\Replacement -->
<g id="node12" class="node"><title>\\mkotlarz\\QRAppBundle\\Entity\\Replacement</title>
<polygon fill="none" stroke="black" points="725.255,-1648 634.255,-1648 634.255,-1612 725.255,-1612 725.255,-1648"/>
<text text-anchor="middle" x="679.755" y="-1627.2" font-family="Courier,monospace" font-size="11.00">Replacement</text>
</g>
<!-- \\mkotlarz\\QRAppBundle\\Entity\\ReplacementRepository -->
<g id="node13" class="node"><title>\\mkotlarz\\QRAppBundle\\Entity\\ReplacementRepository</title>
<polygon fill="none" stroke="black" points="758.755,-1594 600.755,-1594 600.755,-1558 758.755,-1558 758.755,-1594"/>
<text text-anchor="middle" x="679.755" y="-1573.2" font-family="Courier,monospace" font-size="11.00">ReplacementRepository</text>
</g>
<!-- \\mkotlarz\\QRAppBundle\\Entity\\ReplacementRepository&#45;&gt;\\Doctrine\\ORM\\EntityRepository -->
<g id="edge10" class="edge"><title>\\mkotlarz\\QRAppBundle\\Entity\\ReplacementRepository&#45;&gt;\\Doctrine\\ORM\\EntityRepository</title>
<path fill="none" stroke="black" d="M600.679,-1565.34C578.735,-1561.3 555.056,-1555.95 533.755,-1549 442.812,-1519.33 343.443,-1466.5 290.385,-1436.48"/>
<polygon fill="none" stroke="black" points="292.074,-1433.41 281.652,-1431.51 288.61,-1439.5 292.074,-1433.41"/>
</g>
<!-- \\mkotlarz\\QRAppBundle\\Entity\\Room -->
<g id="node14" class="node"><title>\\mkotlarz\\QRAppBundle\\Entity\\Room</title>
<polygon fill="none" stroke="black" points="706.755,-1540 652.755,-1540 652.755,-1504 706.755,-1504 706.755,-1540"/>
<text text-anchor="middle" x="679.755" y="-1519.2" font-family="Courier,monospace" font-size="11.00">Room</text>
</g>
<!-- \\mkotlarz\\QRAppBundle\\Entity\\RoomRepository -->
<g id="node15" class="node"><title>\\mkotlarz\\QRAppBundle\\Entity\\RoomRepository</title>
<polygon fill="none" stroke="black" points="735.255,-1486 624.255,-1486 624.255,-1450 735.255,-1450 735.255,-1486"/>
<text text-anchor="middle" x="679.755" y="-1465.2" font-family="Courier,monospace" font-size="11.00">RoomRepository</text>
</g>
<!-- \\mkotlarz\\QRAppBundle\\Entity\\RoomRepository&#45;&gt;\\Doctrine\\ORM\\EntityRepository -->
<g id="edge11" class="edge"><title>\\mkotlarz\\QRAppBundle\\Entity\\RoomRepository&#45;&gt;\\Doctrine\\ORM\\EntityRepository</title>
<path fill="none" stroke="black" d="M623.823,-1461.05C556.96,-1452.59 442.553,-1438.12 358.236,-1427.45"/>
<polygon fill="none" stroke="black" points="358.468,-1423.96 348.108,-1426.17 357.589,-1430.9 358.468,-1423.96"/>
</g>
<!-- \\mkotlarz\\QRAppBundle\\Entity\\School -->
<g id="node16" class="node"><title>\\mkotlarz\\QRAppBundle\\Entity\\School</title>
<polygon fill="none" stroke="black" points="708.255,-1432 651.255,-1432 651.255,-1396 708.255,-1396 708.255,-1432"/>
<text text-anchor="middle" x="679.755" y="-1411.2" font-family="Courier,monospace" font-size="11.00">School</text>
</g>
<!-- \\mkotlarz\\QRAppBundle\\Entity\\SchoolRepository -->
<g id="node17" class="node"><title>\\mkotlarz\\QRAppBundle\\Entity\\SchoolRepository</title>
<polygon fill="none" stroke="black" points="742.255,-1378 617.255,-1378 617.255,-1342 742.255,-1342 742.255,-1378"/>
<text text-anchor="middle" x="679.755" y="-1357.2" font-family="Courier,monospace" font-size="11.00">SchoolRepository</text>
</g>
<!-- \\mkotlarz\\QRAppBundle\\Entity\\SchoolRepository&#45;&gt;\\Doctrine\\ORM\\EntityRepository -->
<g id="edge12" class="edge"><title>\\mkotlarz\\QRAppBundle\\Entity\\SchoolRepository&#45;&gt;\\Doctrine\\ORM\\EntityRepository</title>
<path fill="none" stroke="black" d="M617.14,-1367.79C549.607,-1376.34 440.03,-1390.2 358.485,-1400.51"/>
<polygon fill="none" stroke="black" points="357.663,-1397.09 348.182,-1401.82 358.542,-1404.03 357.663,-1397.09"/>
</g>
<!-- \\mkotlarz\\QRAppBundle\\Entity\\Subject -->
<g id="node18" class="node"><title>\\mkotlarz\\QRAppBundle\\Entity\\Subject</title>
<polygon fill="none" stroke="black" points="711.755,-1324 647.755,-1324 647.755,-1288 711.755,-1288 711.755,-1324"/>
<text text-anchor="middle" x="679.755" y="-1303.2" font-family="Courier,monospace" font-size="11.00">Subject</text>
</g>
<!-- \\mkotlarz\\QRAppBundle\\Entity\\SubjectRepository -->
<g id="node19" class="node"><title>\\mkotlarz\\QRAppBundle\\Entity\\SubjectRepository</title>
<polygon fill="none" stroke="black" points="745.255,-1270 614.255,-1270 614.255,-1234 745.255,-1234 745.255,-1270"/>
<text text-anchor="middle" x="679.755" y="-1249.2" font-family="Courier,monospace" font-size="11.00">SubjectRepository</text>
</g>
<!-- \\mkotlarz\\QRAppBundle\\Entity\\SubjectRepository&#45;&gt;\\Doctrine\\ORM\\EntityRepository -->
<g id="edge13" class="edge"><title>\\mkotlarz\\QRAppBundle\\Entity\\SubjectRepository&#45;&gt;\\Doctrine\\ORM\\EntityRepository</title>
<path fill="none" stroke="black" d="M613.965,-1260.33C588.578,-1264.56 559.438,-1270.62 533.755,-1279 442.812,-1308.67 343.443,-1361.5 290.385,-1391.52"/>
<polygon fill="none" stroke="black" points="288.61,-1388.5 281.652,-1396.49 292.074,-1394.59 288.61,-1388.5"/>
</g>
<!-- \\mkotlarz\\QRAppBundle\\Entity\\Teacher -->
<g id="node20" class="node"><title>\\mkotlarz\\QRAppBundle\\Entity\\Teacher</title>
<polygon fill="none" stroke="black" points="711.755,-1216 647.755,-1216 647.755,-1180 711.755,-1180 711.755,-1216"/>
<text text-anchor="middle" x="679.755" y="-1195.2" font-family="Courier,monospace" font-size="11.00">Teacher</text>
</g>
<!-- \\mkotlarz\\QRAppBundle\\Entity\\TeacherRepository -->
<g id="node21" class="node"><title>\\mkotlarz\\QRAppBundle\\Entity\\TeacherRepository</title>
<polygon fill="none" stroke="black" points="745.255,-1162 614.255,-1162 614.255,-1126 745.255,-1126 745.255,-1162"/>
<text text-anchor="middle" x="679.755" y="-1141.2" font-family="Courier,monospace" font-size="11.00">TeacherRepository</text>
</g>
<!-- \\mkotlarz\\QRAppBundle\\Entity\\TeacherRepository&#45;&gt;\\Doctrine\\ORM\\EntityRepository -->
<g id="edge14" class="edge"><title>\\mkotlarz\\QRAppBundle\\Entity\\TeacherRepository&#45;&gt;\\Doctrine\\ORM\\EntityRepository</title>
<path fill="none" stroke="black" d="M614.035,-1148.68C588.111,-1152.41 558.568,-1159.08 533.755,-1171 420.381,-1225.46 316.442,-1337.6 273.143,-1388.21"/>
<polygon fill="none" stroke="black" points="270.278,-1386.18 266.485,-1396.07 275.619,-1390.71 270.278,-1386.18"/>
</g>
<!-- \\mkotlarz\\QRAppBundle\\Entity\\Timetable -->
<g id="node22" class="node"><title>\\mkotlarz\\QRAppBundle\\Entity\\Timetable</title>
<polygon fill="none" stroke="black" points="718.255,-1108 641.255,-1108 641.255,-1072 718.255,-1072 718.255,-1108"/>
<text text-anchor="middle" x="679.755" y="-1087.2" font-family="Courier,monospace" font-size="11.00">Timetable</text>
</g>
<!-- \\mkotlarz\\QRAppBundle\\Entity\\TimetableRepository -->
<g id="node23" class="node"><title>\\mkotlarz\\QRAppBundle\\Entity\\TimetableRepository</title>
<polygon fill="none" stroke="black" points="752.255,-1054 607.255,-1054 607.255,-1018 752.255,-1018 752.255,-1054"/>
<text text-anchor="middle" x="679.755" y="-1033.2" font-family="Courier,monospace" font-size="11.00">TimetableRepository</text>
</g>
<!-- \\mkotlarz\\QRAppBundle\\Entity\\TimetableRepository&#45;&gt;\\Doctrine\\ORM\\EntityRepository -->
<g id="edge15" class="edge"><title>\\mkotlarz\\QRAppBundle\\Entity\\TimetableRepository&#45;&gt;\\Doctrine\\ORM\\EntityRepository</title>
<path fill="none" stroke="black" d="M606.955,-1039.27C582.392,-1042.93 555.62,-1049.92 533.755,-1063 396.956,-1144.84 299.207,-1319.09 265.124,-1386.54"/>
<polygon fill="none" stroke="black" points="261.89,-1385.18 260.56,-1395.69 268.154,-1388.3 261.89,-1385.18"/>
</g>
<!-- \\mkotlarz\\QRAppBundle\\Entity\\User -->
<g id="node24" class="node"><title>\\mkotlarz\\QRAppBundle\\Entity\\User</title>
<polygon fill="none" stroke="black" points="706.755,-1000 652.755,-1000 652.755,-964 706.755,-964 706.755,-1000"/>
<text text-anchor="middle" x="679.755" y="-979.2" font-family="Courier,monospace" font-size="11.00">User</text>
</g>
<!-- \\FOS\\UserBundle\\Model\\User -->
<g id="node44" class="node"><title>\\FOS\\UserBundle\\Model\\User</title>
<ellipse fill="none" stroke="black" cx="250.878" cy="-982" rx="120.779" ry="18"/>
<text text-anchor="middle" x="250.878" y="-978.3" font-family="Times New Roman,serif" font-size="14.00" fill="gray">\FOS\UserBundle\Model\User</text>
</g>
<!-- \\mkotlarz\\QRAppBundle\\Entity\\User&#45;&gt;\\FOS\\UserBundle\\Model\\User -->
<g id="edge16" class="edge"><title>\\mkotlarz\\QRAppBundle\\Entity\\User&#45;&gt;\\FOS\\UserBundle\\Model\\User</title>
<path fill="none" stroke="black" d="M652.695,-982C600.071,-982 477.986,-982 382.284,-982"/>
<polygon fill="none" stroke="black" points="382.227,-978.5 372.227,-982 382.227,-985.5 382.227,-978.5"/>
</g>
<!-- \\mkotlarz\\QRAppBundle\\Form\\Type\\HourType -->
<g id="node25" class="node"><title>\\mkotlarz\\QRAppBundle\\Form\\Type\\HourType</title>
<polygon fill="none" stroke="black" points="715.255,-892 644.255,-892 644.255,-856 715.255,-856 715.255,-892"/>
<text text-anchor="middle" x="679.755" y="-871.2" font-family="Courier,monospace" font-size="11.00">HourType</text>
</g>
<!-- \\Symfony\\Component\\Form\\AbstractType -->
<g id="node45" class="node"><title>\\Symfony\\Component\\Form\\AbstractType</title>
<ellipse fill="none" stroke="black" cx="250.878" cy="-658" rx="167.07" ry="18"/>
<text text-anchor="middle" x="250.878" y="-654.3" font-family="Times New Roman,serif" font-size="14.00" fill="gray">\Symfony\Component\Form\AbstractType</text>
</g>
<!-- \\mkotlarz\\QRAppBundle\\Form\\Type\\HourType&#45;&gt;\\Symfony\\Component\\Form\\AbstractType -->
<g id="edge17" class="edge"><title>\\mkotlarz\\QRAppBundle\\Form\\Type\\HourType&#45;&gt;\\Symfony\\Component\\Form\\AbstractType</title>
<path fill="none" stroke="black" d="M644.25,-871.532C614.154,-868.465 569.793,-861.703 533.755,-847 431.646,-805.34 328.167,-723.566 279.905,-682.605"/>
<polygon fill="none" stroke="black" points="281.968,-679.764 272.095,-675.922 277.417,-685.083 281.968,-679.764"/>
</g>
<!-- \\mkotlarz\\QRAppBundle\\Form\\Type\\LessonType -->
<g id="node26" class="node"><title>\\mkotlarz\\QRAppBundle\\Form\\Type\\LessonType</title>
<polygon fill="none" stroke="black" points="721.755,-838 637.755,-838 637.755,-802 721.755,-802 721.755,-838"/>
<text text-anchor="middle" x="679.755" y="-817.2" font-family="Courier,monospace" font-size="11.00">LessonType</text>
</g>
<!-- \\mkotlarz\\QRAppBundle\\Form\\Type\\LessonType&#45;&gt;\\Symfony\\Component\\Form\\AbstractType -->
<g id="edge18" class="edge"><title>\\mkotlarz\\QRAppBundle\\Form\\Type\\LessonType&#45;&gt;\\Symfony\\Component\\Form\\AbstractType</title>
<path fill="none" stroke="black" d="M637.728,-815.286C608.294,-811.202 567.958,-804.159 533.755,-793 443.056,-763.408 343.976,-710.781 290.812,-680.721"/>
<polygon fill="none" stroke="black" points="292.48,-677.643 282.057,-675.74 289.018,-683.727 292.48,-677.643"/>
</g>
<!-- \\mkotlarz\\QRAppBundle\\Form\\Type\\RegistrationFormType -->
<g id="node27" class="node"><title>\\mkotlarz\\QRAppBundle\\Form\\Type\\RegistrationFormType</title>
<polygon fill="none" stroke="black" points="755.755,-784 603.755,-784 603.755,-748 755.755,-748 755.755,-784"/>
<text text-anchor="middle" x="679.755" y="-763.2" font-family="Courier,monospace" font-size="11.00">RegistrationFormType</text>
</g>
<!-- \\mkotlarz\\QRAppBundle\\Form\\Type\\RegistrationFormType&#45;&gt;\\Symfony\\Component\\Form\\AbstractType -->
<g id="edge19" class="edge"><title>\\mkotlarz\\QRAppBundle\\Form\\Type\\RegistrationFormType&#45;&gt;\\Symfony\\Component\\Form\\AbstractType</title>
<path fill="none" stroke="black" d="M603.584,-753.417C581.037,-749.262 556.309,-744.327 533.755,-739 457.868,-721.075 371.904,-695.61 315.074,-678.04"/>
<polygon fill="none" stroke="black" points="316.099,-674.693 305.511,-675.073 314.025,-681.379 316.099,-674.693"/>
</g>
<!-- \\mkotlarz\\QRAppBundle\\Form\\Type\\ReplacementType -->
<g id="node28" class="node"><title>\\mkotlarz\\QRAppBundle\\Form\\Type\\ReplacementType</title>
<polygon fill="none" stroke="black" points="738.755,-730 620.755,-730 620.755,-694 738.755,-694 738.755,-730"/>
<text text-anchor="middle" x="679.755" y="-709.2" font-family="Courier,monospace" font-size="11.00">ReplacementType</text>
</g>
<!-- \\mkotlarz\\QRAppBundle\\Form\\Type\\ReplacementType&#45;&gt;\\Symfony\\Component\\Form\\AbstractType -->
<g id="edge20" class="edge"><title>\\mkotlarz\\QRAppBundle\\Form\\Type\\ReplacementType&#45;&gt;\\Symfony\\Component\\Form\\AbstractType</title>
<path fill="none" stroke="black" d="M620.741,-704.661C556.687,-696.558 451.846,-683.296 370.276,-672.977"/>
<polygon fill="none" stroke="black" points="370.303,-669.453 359.943,-671.67 369.425,-676.398 370.303,-669.453"/>
</g>
<!-- \\mkotlarz\\QRAppBundle\\Form\\Type\\RoomType -->
<g id="node29" class="node"><title>\\mkotlarz\\QRAppBundle\\Form\\Type\\RoomType</title>
<polygon fill="none" stroke="black" points="715.255,-676 644.255,-676 644.255,-640 715.255,-640 715.255,-676"/>
<text text-anchor="middle" x="679.755" y="-655.2" font-family="Courier,monospace" font-size="11.00">RoomType</text>
</g>
<!-- \\mkotlarz\\QRAppBundle\\Form\\Type\\RoomType&#45;&gt;\\Symfony\\Component\\Form\\AbstractType -->
<g id="edge21" class="edge"><title>\\mkotlarz\\QRAppBundle\\Form\\Type\\RoomType&#45;&gt;\\Symfony\\Component\\Form\\AbstractType</title>
<path fill="none" stroke="black" d="M644.184,-658C596.978,-658 508.98,-658 428.272,-658"/>
<polygon fill="none" stroke="black" points="427.961,-654.5 417.961,-658 427.961,-661.5 427.961,-654.5"/>
</g>
<!-- \\mkotlarz\\QRAppBundle\\Form\\Type\\SchoolType -->
<g id="node30" class="node"><title>\\mkotlarz\\QRAppBundle\\Form\\Type\\SchoolType</title>
<polygon fill="none" stroke="black" points="721.755,-622 637.755,-622 637.755,-586 721.755,-586 721.755,-622"/>
<text text-anchor="middle" x="679.755" y="-601.2" font-family="Courier,monospace" font-size="11.00">SchoolType</text>
</g>
<!-- \\mkotlarz\\QRAppBundle\\Form\\Type\\SchoolType&#45;&gt;\\Symfony\\Component\\Form\\AbstractType -->
<g id="edge22" class="edge"><title>\\mkotlarz\\QRAppBundle\\Form\\Type\\SchoolType&#45;&gt;\\Symfony\\Component\\Form\\AbstractType</title>
<path fill="none" stroke="black" d="M637.437,-609.227C576.29,-616.962 459.336,-631.757 370.202,-643.032"/>
<polygon fill="none" stroke="black" points="369.507,-639.592 360.025,-644.319 370.386,-646.537 369.507,-639.592"/>
</g>
<!-- \\mkotlarz\\QRAppBundle\\Form\\Type\\SubjectType -->
<g id="node31" class="node"><title>\\mkotlarz\\QRAppBundle\\Form\\Type\\SubjectType</title>
<polygon fill="none" stroke="black" points="725.255,-568 634.255,-568 634.255,-532 725.255,-532 725.255,-568"/>
<text text-anchor="middle" x="679.755" y="-547.2" font-family="Courier,monospace" font-size="11.00">SubjectType</text>
</g>
<!-- \\mkotlarz\\QRAppBundle\\Form\\Type\\SubjectType&#45;&gt;\\Symfony\\Component\\Form\\AbstractType -->
<g id="edge23" class="edge"><title>\\mkotlarz\\QRAppBundle\\Form\\Type\\SubjectType&#45;&gt;\\Symfony\\Component\\Form\\AbstractType</title>
<path fill="none" stroke="black" d="M634.102,-557.177C605.312,-562.084 567.149,-569.112 533.755,-577 457.868,-594.925 371.904,-620.39 315.074,-637.96"/>
<polygon fill="none" stroke="black" points="314.025,-634.621 305.511,-640.927 316.099,-641.307 314.025,-634.621"/>
</g>
<!-- \\mkotlarz\\QRAppBundle\\Form\\Type\\TeacherType -->
<g id="node32" class="node"><title>\\mkotlarz\\QRAppBundle\\Form\\Type\\TeacherType</title>
<polygon fill="none" stroke="black" points="725.255,-514 634.255,-514 634.255,-478 725.255,-478 725.255,-514"/>
<text text-anchor="middle" x="679.755" y="-493.2" font-family="Courier,monospace" font-size="11.00">TeacherType</text>
</g>
<!-- \\mkotlarz\\QRAppBundle\\Form\\Type\\TeacherType&#45;&gt;\\Symfony\\Component\\Form\\AbstractType -->
<g id="edge24" class="edge"><title>\\mkotlarz\\QRAppBundle\\Form\\Type\\TeacherType&#45;&gt;\\Symfony\\Component\\Form\\AbstractType</title>
<path fill="none" stroke="black" d="M634.222,-501.208C605.145,-505.356 566.619,-512.278 533.755,-523 443.056,-552.592 343.976,-605.219 290.812,-635.279"/>
<polygon fill="none" stroke="black" points="289.018,-632.273 282.057,-640.26 292.48,-638.357 289.018,-632.273"/>
</g>
<!-- \\mkotlarz\\QRAppBundle\\Form\\Type\\TimetableType -->
<g id="node33" class="node"><title>\\mkotlarz\\QRAppBundle\\Form\\Type\\TimetableType</title>
<polygon fill="none" stroke="black" points="731.755,-460 627.755,-460 627.755,-424 731.755,-424 731.755,-460"/>
<text text-anchor="middle" x="679.755" y="-439.2" font-family="Courier,monospace" font-size="11.00">TimetableType</text>
</g>
<!-- \\mkotlarz\\QRAppBundle\\Form\\Type\\TimetableType&#45;&gt;\\Symfony\\Component\\Form\\AbstractType -->
<g id="edge25" class="edge"><title>\\mkotlarz\\QRAppBundle\\Form\\Type\\TimetableType&#45;&gt;\\Symfony\\Component\\Form\\AbstractType</title>
<path fill="none" stroke="black" d="M627.667,-446.387C599.222,-450.081 563.629,-456.812 533.755,-469 431.646,-510.66 328.167,-592.434 279.905,-633.395"/>
<polygon fill="none" stroke="black" points="277.417,-630.917 272.095,-640.078 281.968,-636.236 277.417,-630.917"/>
</g>
<!-- \\mkotlarz\\QRAppBundle\\Tests\\Controller\\DashboardControllerTest -->
<g id="node34" class="node"><title>\\mkotlarz\\QRAppBundle\\Tests\\Controller\\DashboardControllerTest</title>
<polygon fill="none" stroke="black" points="765.755,-344 593.755,-344 593.755,-308 765.755,-308 765.755,-344"/>
<text text-anchor="middle" x="679.755" y="-323.2" font-family="Courier,monospace" font-size="11.00">DashboardControllerTest</text>
</g>
<!-- \\Symfony\\Bundle\\FrameworkBundle\\Test\\WebTestCase -->
<g id="node47" class="node"><title>\\Symfony\\Bundle\\FrameworkBundle\\Test\\WebTestCase</title>
<ellipse fill="none" stroke="black" cx="250.878" cy="-218" rx="215.562" ry="18"/>
<text text-anchor="middle" x="250.878" y="-214.3" font-family="Times New Roman,serif" font-size="14.00" fill="gray">\Symfony\Bundle\FrameworkBundle\Test\WebTestCase</text>
</g>
<!-- \\mkotlarz\\QRAppBundle\\Tests\\Controller\\DashboardControllerTest&#45;&gt;\\Symfony\\Bundle\\FrameworkBundle\\Test\\WebTestCase -->
<g id="edge27" class="edge"><title>\\mkotlarz\\QRAppBundle\\Tests\\Controller\\DashboardControllerTest&#45;&gt;\\Symfony\\Bundle\\FrameworkBundle\\Test\\WebTestCase</title>
<path fill="none" stroke="black" d="M593.746,-311.579C573.978,-307.836 553.069,-303.562 533.755,-299 458.337,-281.185 372.964,-255.924 316.13,-238.366"/>
<polygon fill="none" stroke="black" points="317.148,-235.018 306.56,-235.399 315.075,-241.704 317.148,-235.018"/>
</g>
<!-- \\mkotlarz\\QRAppBundle\\Tests\\Controller\\DefaultControllerTest -->
<g id="node35" class="node"><title>\\mkotlarz\\QRAppBundle\\Tests\\Controller\\DefaultControllerTest</title>
<polygon fill="none" stroke="black" points="758.755,-290 600.755,-290 600.755,-254 758.755,-254 758.755,-290"/>
<text text-anchor="middle" x="679.755" y="-269.2" font-family="Courier,monospace" font-size="11.00">DefaultControllerTest</text>
</g>
<!-- \\mkotlarz\\QRAppBundle\\Tests\\Controller\\DefaultControllerTest&#45;&gt;\\Symfony\\Bundle\\FrameworkBundle\\Test\\WebTestCase -->
<g id="edge28" class="edge"><title>\\mkotlarz\\QRAppBundle\\Tests\\Controller\\DefaultControllerTest&#45;&gt;\\Symfony\\Bundle\\FrameworkBundle\\Test\\WebTestCase</title>
<path fill="none" stroke="black" d="M600.46,-262.096C538.966,-254.317 452.048,-243.321 380.39,-234.257"/>
<polygon fill="none" stroke="black" points="380.744,-230.774 370.384,-232.991 379.866,-237.718 380.744,-230.774"/>
</g>
<!-- \\mkotlarz\\QRAppBundle\\Tests\\Controller\\HomeControllerTest -->
<g id="node36" class="node"><title>\\mkotlarz\\QRAppBundle\\Tests\\Controller\\HomeControllerTest</title>
<polygon fill="none" stroke="black" points="748.755,-236 610.755,-236 610.755,-200 748.755,-200 748.755,-236"/>
<text text-anchor="middle" x="679.755" y="-215.2" font-family="Courier,monospace" font-size="11.00">HomeControllerTest</text>
</g>
<!-- \\mkotlarz\\QRAppBundle\\Tests\\Controller\\HomeControllerTest&#45;&gt;\\Symfony\\Bundle\\FrameworkBundle\\Test\\WebTestCase -->
<g id="edge29" class="edge"><title>\\mkotlarz\\QRAppBundle\\Tests\\Controller\\HomeControllerTest&#45;&gt;\\Symfony\\Bundle\\FrameworkBundle\\Test\\WebTestCase</title>
<path fill="none" stroke="black" d="M610.643,-218C573.757,-218 525.843,-218 477.106,-218"/>
<polygon fill="none" stroke="black" points="477.025,-214.5 467.025,-218 477.025,-221.5 477.025,-214.5"/>
</g>
<!-- \\mkotlarz\\QRAppBundle\\Tests\\Controller\\JSONGeneratorControllerTest -->
<g id="node37" class="node"><title>\\mkotlarz\\QRAppBundle\\Tests\\Controller\\JSONGeneratorControllerTest</title>
<polygon fill="none" stroke="black" points="779.255,-182 580.255,-182 580.255,-146 779.255,-146 779.255,-182"/>
<text text-anchor="middle" x="679.755" y="-161.2" font-family="Courier,monospace" font-size="11.00">JSONGeneratorControllerTest</text>
</g>
<!-- \\mkotlarz\\QRAppBundle\\Tests\\Controller\\JSONGeneratorControllerTest&#45;&gt;\\Symfony\\Bundle\\FrameworkBundle\\Test\\WebTestCase -->
<g id="edge30" class="edge"><title>\\mkotlarz\\QRAppBundle\\Tests\\Controller\\JSONGeneratorControllerTest&#45;&gt;\\Symfony\\Bundle\\FrameworkBundle\\Test\\WebTestCase</title>
<path fill="none" stroke="black" d="M580.017,-176.49C520.76,-183.986 444.723,-193.605 380.767,-201.695"/>
<polygon fill="none" stroke="black" points="380.093,-198.253 370.611,-202.98 380.971,-205.197 380.093,-198.253"/>
</g>
<!-- \\mkotlarz\\QRAppBundle\\Tests\\Controller\\QRCodeGeneratorControllerTest -->
<g id="node38" class="node"><title>\\mkotlarz\\QRAppBundle\\Tests\\Controller\\QRCodeGeneratorControllerTest</title>
<polygon fill="none" stroke="black" points="785.755,-128 573.755,-128 573.755,-92 785.755,-92 785.755,-128"/>
<text text-anchor="middle" x="679.755" y="-107.2" font-family="Courier,monospace" font-size="11.00">QRCodeGeneratorControllerTest</text>
</g>
<!-- \\mkotlarz\\QRAppBundle\\Tests\\Controller\\QRCodeGeneratorControllerTest&#45;&gt;\\Symfony\\Bundle\\FrameworkBundle\\Test\\WebTestCase -->
<g id="edge31" class="edge"><title>\\mkotlarz\\QRAppBundle\\Tests\\Controller\\QRCodeGeneratorControllerTest&#45;&gt;\\Symfony\\Bundle\\FrameworkBundle\\Test\\WebTestCase</title>
<path fill="none" stroke="black" d="M575.134,-128.044C561.181,-130.839 547.088,-133.851 533.755,-137 458.337,-154.815 372.964,-180.076 316.13,-197.634"/>
<polygon fill="none" stroke="black" points="315.075,-194.296 306.56,-200.601 317.148,-200.982 315.075,-194.296"/>
</g>
<!-- \\mkotlarz\\QRAppBundle\\mkotlarzQRAppBundle -->
<g id="node39" class="node"><title>\\mkotlarz\\QRAppBundle\\mkotlarzQRAppBundle</title>
<polygon fill="none" stroke="black" points="752.255,-68 607.255,-68 607.255,-32 752.255,-32 752.255,-68"/>
<text text-anchor="middle" x="679.755" y="-47.2" font-family="Courier,monospace" font-size="11.00">mkotlarzQRAppBundle</text>
</g>
<!-- \\Symfony\\Component\\HttpKernel\\Bundle\\Bundle -->
<g id="node46" class="node"><title>\\Symfony\\Component\\HttpKernel\\Bundle\\Bundle</title>
<ellipse fill="none" stroke="black" cx="250.878" cy="-50" rx="189.267" ry="18"/>
<text text-anchor="middle" x="250.878" y="-46.3" font-family="Times New Roman,serif" font-size="14.00" fill="gray">\Symfony\Component\HttpKernel\Bundle\Bundle</text>
</g>
<!-- \\mkotlarz\\QRAppBundle\\mkotlarzQRAppBundle&#45;&gt;\\Symfony\\Component\\HttpKernel\\Bundle\\Bundle -->
<g id="edge26" class="edge"><title>\\mkotlarz\\QRAppBundle\\mkotlarzQRAppBundle&#45;&gt;\\Symfony\\Component\\HttpKernel\\Bundle\\Bundle</title>
<path fill="none" stroke="black" d="M606.824,-50C563.563,-50 506.185,-50 450.201,-50"/>
<polygon fill="none" stroke="black" points="450.135,-46.5001 440.135,-50 450.135,-53.5001 450.135,-46.5001"/>
</g>
</g>
</svg>
